[
    {
        "relation": [
            "delegate_permission/common.handle_all_urls"
        ],
        "target": {
            "namespace": "android_app",
            "package_name": "com.zingallo.videomeetings",
            "sha256_cert_fingerprints": [
                "FA:C6:17:45:DC:09:03:78:6F:B9:ED:E6:2A:96:2B:39:9F:73:48:F0:BB:6F:89:9B:83:32:66:75:91:03:3B:9C",
                "8F:0A:CC:FC:85:3A:4D:67:0B:F6:CB:E2:B0:1E:38:F1:7A:5D:A3:87:4B:13:56:7A:A7:7A:17:4F:68:28:A8:97"   
            ]
        }
    }
]